{
	"tags": {
		"allowUnkownTags": true
	},
	"opts": {
		"destination": "./docs",
		"private": true
	},
	"plugins": [
		"plugins/markdown"
	],
	"templates": {
		"systemName": "Red Pill DIG",
		"outputSourceFiles": true,
		"path": "ink-docstrap",
		"theme": "paper",
		"inverseNav": true,
		"linenums": true,
		"navType": "vertical"
	}
}